%!PS-Adobe-2.0
%%Title: mut3.ps
%%Creator: fig2dev Version 3.2 Patchlevel 0-beta3
%%CreationDate: Sun Dec 20 19:42:37 1998
%%For: mdr@glide.cs.bham.ac.uk (Mark Ryan,,,,)
%%Orientation: Landscape
%%BoundingBox: 214 130 438 648
%%Pages: 1
%%BeginSetup
%%IncludeFeature: *PageSize Letter
%%EndSetup
%%Magnification: 1.0000
%%EndComments
/$F2psDict 200 dict def
$F2psDict begin
$F2psDict /mtrx matrix put
/col-1 {0 setgray} bind def
/col0 {0.000 0.000 0.000 srgb} bind def
/col1 {0.000 0.000 1.000 srgb} bind def
/col2 {0.000 1.000 0.000 srgb} bind def
/col3 {0.000 1.000 1.000 srgb} bind def
/col4 {1.000 0.000 0.000 srgb} bind def
/col5 {1.000 0.000 1.000 srgb} bind def
/col6 {1.000 1.000 0.000 srgb} bind def
/col7 {1.000 1.000 1.000 srgb} bind def
/col8 {0.000 0.000 0.560 srgb} bind def
/col9 {0.000 0.000 0.690 srgb} bind def
/col10 {0.000 0.000 0.820 srgb} bind def
/col11 {0.530 0.810 1.000 srgb} bind def
/col12 {0.000 0.560 0.000 srgb} bind def
/col13 {0.000 0.690 0.000 srgb} bind def
/col14 {0.000 0.820 0.000 srgb} bind def
/col15 {0.000 0.560 0.560 srgb} bind def
/col16 {0.000 0.690 0.690 srgb} bind def
/col17 {0.000 0.820 0.820 srgb} bind def
/col18 {0.560 0.000 0.000 srgb} bind def
/col19 {0.690 0.000 0.000 srgb} bind def
/col20 {0.820 0.000 0.000 srgb} bind def
/col21 {0.560 0.000 0.560 srgb} bind def
/col22 {0.690 0.000 0.690 srgb} bind def
/col23 {0.820 0.000 0.820 srgb} bind def
/col24 {0.500 0.190 0.000 srgb} bind def
/col25 {0.630 0.250 0.000 srgb} bind def
/col26 {0.750 0.380 0.000 srgb} bind def
/col27 {1.000 0.500 0.500 srgb} bind def
/col28 {1.000 0.630 0.630 srgb} bind def
/col29 {1.000 0.750 0.750 srgb} bind def
/col30 {1.000 0.880 0.880 srgb} bind def
/col31 {1.000 0.840 0.000 srgb} bind def

end
save
151.0 -179.0 translate
 90 rotate
1 -1 scale

/cp {closepath} bind def
/ef {eofill} bind def
/gr {grestore} bind def
/gs {gsave} bind def
/sa {save} bind def
/rs {restore} bind def
/l {lineto} bind def
/m {moveto} bind def
/rm {rmoveto} bind def
/n {newpath} bind def
/s {stroke} bind def
/sh {show} bind def
/slc {setlinecap} bind def
/slj {setlinejoin} bind def
/slw {setlinewidth} bind def
/srgb {setrgbcolor} bind def
/rot {rotate} bind def
/sc {scale} bind def
/sd {setdash} bind def
/ff {findfont} bind def
/sf {setfont} bind def
/scf {scalefont} bind def
/sw {stringwidth} bind def
/tr {translate} bind def
/tnt {dup dup currentrgbcolor
  4 -2 roll dup 1 exch sub 3 -1 roll mul add
  4 -2 roll dup 1 exch sub 3 -1 roll mul add
  4 -2 roll dup 1 exch sub 3 -1 roll mul add srgb}
  bind def
/shd {dup dup currentrgbcolor 4 -2 roll mul 4 -2 roll mul
  4 -2 roll mul srgb} bind def
 /DrawEllipse {
	/endangle exch def
	/startangle exch def
	/yrad exch def
	/xrad exch def
	/y exch def
	/x exch def
	/savematrix mtrx currentmatrix def
	x y tr xrad yrad sc 0 0 1 startangle endangle arc
	closepath
	savematrix setmatrix
	} def

/$F2psBegin {$F2psDict begin /$F2psEnteredState save def} def
/$F2psEnd {$F2psEnteredState restore end} def
%%EndProlog

$F2psBegin
10 setmiterlimit
n -1000 5778 m -1000 -1000 l 14775 -1000 l 14775 5778 l cp clip
 0.06000 0.06000 sc
%%Page: 1 1
7.500 slw
% Ellipse
n 5619 2170 173 173 0 360 DrawEllipse gs col0 s gr

% Ellipse
n 6356 2224 173 173 0 360 DrawEllipse gs col0 s gr

% Ellipse
n 6862 960 173 173 0 360 DrawEllipse gs col0 s gr

% Ellipse
n 8073 2197 173 173 0 360 DrawEllipse gs col0 s gr

% Ellipse
n 8896 2987 173 173 0 360 DrawEllipse gs col0 s gr

% Ellipse
n 10250 3006 173 173 0 360 DrawEllipse gs col0 s gr

% Ellipse
n 11053 2202 173 173 0 360 DrawEllipse gs col0 s gr

% Ellipse
n 11904 2226 173 173 0 360 DrawEllipse gs col0 s gr

% Ellipse
n 12762 2222 173 173 0 360 DrawEllipse gs col0 s gr

% Ellipse
n 12237 996 173 173 0 360 DrawEllipse gs col0 s gr

% Ellipse
n 13520 2192 173 173 0 360 DrawEllipse gs col0 s gr

% Ellipse
n 12284 3414 173 173 0 360 DrawEllipse gs col0 s gr

% Ellipse
n 7636 4202 173 173 0 360 DrawEllipse gs col0 s gr

% Ellipse
n 6867 3411 173 173 0 360 DrawEllipse gs col0 s gr

% Ellipse
n 7222 2212 173 173 0 360 DrawEllipse gs col0 s gr

% Ellipse
n 11498 4203 173 173 0 360 DrawEllipse gs col0 s gr

% Polyline
gs  clippath
5885 1972 m 5779 2035 l 5843 1930 l 5728 2044 l 5771 2087 l cp
clip
n 6726 1086 m 5760 2055 l gs col-1 s gr gr

% arrowhead
n 5885 1972 m 5779 2035 l 5843 1930 l 5864 1951 l 5885 1972 l  cp gs 0.00 setgray ef gr  col-1 s
% Polyline
gs  clippath
7882 1940 m 7946 2046 l 7840 1983 l 7956 2097 l 7998 2054 l cp
clip
n 6978 1091 m 7966 2065 l gs col-1 s gr gr

% arrowhead
n 7882 1940 m 7946 2046 l 7840 1983 l 7861 1962 l 7882 1940 l  cp gs 0.00 setgray ef gr  col-1 s
% Polyline
gs  clippath
8672 2751 m 8735 2857 l 8630 2793 l 8743 2909 l 8786 2867 l cp
clip
n 8204 2317 m 8754 2877 l gs col-1 s gr gr

% arrowhead
n 8672 2751 m 8735 2857 l 8630 2793 l 8651 2772 l 8672 2751 l  cp gs 0.00 setgray ef gr  col-1 s
% Polyline
gs  clippath
6657 3166 m 6721 3272 l 6615 3209 l 6731 3323 l 6773 3280 l cp
clip
n 5752 2315 m 6741 3291 l gs col-1 s gr gr

% arrowhead
n 6657 3166 m 6721 3272 l 6615 3209 l 6636 3188 l 6657 3166 l  cp gs 0.00 setgray ef gr  col-1 s
% Polyline
gs  clippath
7425 3944 m 7489 4049 l 7383 3987 l 7499 4100 l 7541 4057 l cp
clip
n 6975 3546 m 7509 4068 l gs col-1 s gr gr

% arrowhead
n 7425 3944 m 7489 4049 l 7383 3987 l 7404 3965 l 7425 3944 l  cp gs 0.00 setgray ef gr  col-1 s
% Polyline
gs  clippath
7106 3205 m 7000 3268 l 7064 3163 l 6949 3277 l 6992 3320 l cp
clip
n 7957 2314 m 6981 3288 l gs col-1 s gr gr

% arrowhead
n 7106 3205 m 7000 3268 l 7064 3163 l 7085 3184 l 7106 3205 l  cp gs 0.00 setgray ef gr  col-1 s
% Polyline
gs  clippath
6035 2158 m 6154 2192 l 6033 2218 l 6195 2224 l 6197 2164 l cp
clip
n 5794 2179 m 6181 2193 l gs col-1 s gr gr

% arrowhead
n 6035 2158 m 6154 2192 l 6033 2218 l 6034 2188 l 6035 2158 l  cp gs 0.00 setgray ef gr  col-1 s
% Polyline
gs  clippath
6898 2159 m 7018 2188 l 6898 2219 l 7060 2218 l 7060 2158 l cp
clip
n 6525 2190 m 7045 2188 l gs col-1 s gr gr

% arrowhead
n 6898 2159 m 7018 2188 l 6898 2219 l 6898 2189 l 6898 2159 l  cp gs 0.00 setgray ef gr  col-1 s
% Polyline
gs  clippath
7752 2158 m 7872 2188 l 7752 2218 l 7914 2218 l 7914 2158 l cp
clip
n 7408 2188 m 7899 2188 l gs col-1 s gr gr

% arrowhead
n 7752 2158 m 7872 2188 l 7752 2218 l 7752 2188 l 7752 2158 l  cp gs 0.00 setgray ef gr  col-1 s
% Polyline
gs  clippath
6713 1246 m 6787 1146 l 6768 1269 l 6831 1120 l 6776 1097 l cp
clip
n 6408 2046 m 6798 1122 l gs col-1 s gr gr

% arrowhead
n 6713 1246 m 6787 1146 l 6768 1269 l 6741 1257 l 6713 1246 l  cp gs 0.00 setgray ef gr  col-1 s
% Polyline
gs  clippath
7901 4004 m 7795 4066 l 7859 3961 l 7744 4075 l 7787 4118 l cp
clip
n 8772 3096 m 7776 4086 l gs col-1 s gr gr

% arrowhead
n 7901 4004 m 7795 4066 l 7859 3961 l 7880 3982 l 7901 4004 l  cp gs 0.00 setgray ef gr  col-1 s
% Polyline
gs  clippath
13311 1934 m 13374 2040 l 13268 1977 l 13384 2091 l 13426 2048 l cp
clip
n 12396 1071 m 13394 2059 l gs col-1 s gr gr

% arrowhead
n 13311 1934 m 13374 2040 l 13268 1977 l 13290 1956 l 13311 1934 l  cp gs 0.00 setgray ef gr  col-1 s
% Polyline
gs  clippath
11306 1983 m 11199 2046 l 11264 1941 l 11148 2054 l 11190 2097 l cp
clip
n 12129 1134 m 11180 2065 l gs col-1 s gr gr

% arrowhead
n 11306 1983 m 11199 2046 l 11264 1941 l 11285 1962 l 11306 1983 l  cp gs 0.00 setgray ef gr  col-1 s
% Polyline
gs  clippath
10495 2810 m 10389 2875 l 10451 2768 l 10339 2885 l 10382 2927 l cp
clip
n 10923 2322 m 10371 2895 l gs col-1 s gr gr

% arrowhead
n 10495 2810 m 10389 2875 l 10451 2768 l 10473 2789 l 10495 2810 l  cp gs 0.00 setgray ef gr  col-1 s
% Polyline
gs  clippath
12531 3209 m 12424 3272 l 12489 3166 l 12373 3280 l 12415 3323 l cp
clip
n 13394 2315 m 12405 3291 l gs col-1 s gr gr

% arrowhead
n 12531 3209 m 12424 3272 l 12489 3166 l 12510 3188 l 12531 3209 l  cp gs 0.00 setgray ef gr  col-1 s
% Polyline
gs  clippath
11759 4000 m 11653 4063 l 11717 3958 l 11602 4072 l 11645 4115 l cp
clip
n 12171 3546 m 11634 4083 l gs col-1 s gr gr

% arrowhead
n 11759 4000 m 11653 4063 l 11717 3958 l 11738 3979 l 11759 4000 l  cp gs 0.00 setgray ef gr  col-1 s
% Polyline
gs  clippath
12082 3163 m 12145 3268 l 12040 3205 l 12154 3320 l 12197 3277 l cp
clip
n 11189 2314 m 12165 3288 l gs col-1 s gr gr

% arrowhead
n 12082 3163 m 12145 3268 l 12040 3205 l 12061 3184 l 12082 3163 l  cp gs 0.00 setgray ef gr  col-1 s
% Polyline
gs  clippath
13081 2232 m 12959 2204 l 13079 2172 l 12917 2175 l 12919 2235 l cp
clip
n 13332 2196 m 12933 2205 l gs col-1 s gr gr

% arrowhead
n 13081 2232 m 12959 2204 l 13079 2172 l 13080 2202 l 13081 2232 l  cp gs 0.00 setgray ef gr  col-1 s
% Polyline
gs  clippath
12222 2217 m 12101 2187 l 12222 2157 l 12060 2157 l 12060 2217 l cp
clip
n 12598 2188 m 12075 2187 l gs col-1 s gr gr

% arrowhead
n 12222 2217 m 12101 2187 l 12222 2157 l 12222 2187 l 12222 2217 l  cp gs 0.00 setgray ef gr  col-1 s
% Polyline
gs  clippath
11394 2218 m 11274 2188 l 11394 2158 l 11232 2158 l 11232 2218 l cp
clip
n 11738 2188 m 11247 2188 l gs col-1 s gr gr

% arrowhead
n 11394 2218 m 11274 2188 l 11394 2158 l 11394 2188 l 11394 2218 l  cp gs 0.00 setgray ef gr  col-1 s
% Polyline
gs  clippath
12384 1277 m 12359 1155 l 12438 1251 l 12369 1105 l 12314 1130 l cp
clip
n 12789 2058 m 12348 1131 l gs col-1 s gr gr

% arrowhead
n 12384 1277 m 12359 1155 l 12438 1251 l 12411 1264 l 12384 1277 l  cp gs 0.00 setgray ef gr  col-1 s
% Polyline
gs  clippath
11274 3956 m 11338 4061 l 11232 3999 l 11348 4112 l 11390 4069 l cp
clip
n 10368 3111 m 11358 4080 l gs col-1 s gr gr

% arrowhead
n 11274 3956 m 11338 4061 l 11232 3999 l 11253 3977 l 11274 3956 l  cp gs 0.00 setgray ef gr  col-1 s
% Polyline
gs  clippath
6873 630 m 6862 753 l 6814 640 l 6840 800 l 6899 790 l cp
clip
n 7002 861 m 7004 858 l 7009 852 l 7017 841 l 7028 825 l 7042 805 l
 7058 781 l 7076 755 l 7093 729 l 7109 704 l 7123 680 l
 7135 659 l 7143 641 l 7147 626 l 7149 613 l 7146 603 l
 7140 595 l 7131 588 l 7118 582 l 7101 577 l 7082 573 l
 7061 569 l 7037 566 l 7013 563 l 6989 561 l 6965 559 l
 6943 558 l 6923 557 l 6905 558 l 6889 559 l 6877 562 l
 6867 567 l 6858 575 l 6853 586 l 6849 600 l 6848 618 l
 6848 640 l 6850 664 l 6853 689 l 6856 714 l 6860 737 l
 6863 755 l 6867 780 l gs col-1 s gr gr

% arrowhead
n 6873 630 m 6862 753 l 6814 640 l 6844 635 l 6873 630 l  cp gs 0.00 setgray ef gr  col-1 s
% Polyline
gs  clippath
6394 2528 m 6410 2405 l 6454 2522 l 6436 2361 l 6377 2367 l cp
clip
n 6531 2274 m 6534 2276 l 6540 2281 l 6550 2290 l 6564 2301 l 6581 2316 l
 6600 2332 l 6619 2349 l 6636 2366 l 6650 2382 l 6661 2396 l
 6668 2409 l 6672 2422 l 6671 2433 l 6667 2443 l 6661 2453 l
 6651 2465 l 6640 2477 l 6625 2489 l 6609 2503 l 6592 2516 l
 6574 2530 l 6556 2543 l 6538 2556 l 6521 2567 l 6505 2577 l
 6491 2584 l 6478 2590 l 6468 2592 l 6459 2592 l 6450 2588 l
 6443 2580 l 6437 2567 l 6432 2549 l 6427 2527 l 6422 2502 l
 6419 2476 l 6415 2449 l 6413 2425 l 6411 2406 l 6408 2379 l gs col-1 s gr gr

% arrowhead
n 6394 2528 m 6410 2405 l 6454 2522 l 6424 2525 l 6394 2528 l  cp gs 0.00 setgray ef gr  col-1 s
% Polyline
gs  clippath
7277 2520 m 7288 2396 l 7336 2511 l 7311 2351 l 7252 2360 l cp
clip
n 7408 2250 m 7411 2253 l 7416 2259 l 7425 2269 l 7437 2282 l 7452 2300 l
 7468 2319 l 7484 2339 l 7499 2358 l 7512 2377 l 7521 2393 l
 7528 2408 l 7531 2421 l 7530 2433 l 7526 2445 l 7519 2457 l
 7509 2469 l 7496 2483 l 7481 2496 l 7465 2511 l 7447 2525 l
 7429 2539 l 7412 2551 l 7396 2562 l 7381 2571 l 7368 2577 l
 7356 2580 l 7347 2580 l 7339 2576 l 7331 2567 l 7325 2554 l
 7318 2537 l 7312 2515 l 7307 2491 l 7301 2465 l 7296 2439 l
 7292 2415 l 7288 2396 l 7284 2370 l gs col-1 s gr gr

% arrowhead
n 7277 2520 m 7288 2396 l 7336 2511 l 7306 2515 l 7277 2520 l  cp gs 0.00 setgray ef gr  col-1 s
% Polyline
gs  clippath
8930 2670 m 8890 2787 l 8870 2665 l 8858 2827 l 8918 2831 l cp
clip
n 9036 2889 m 9036 2888 l 9040 2885 l 9047 2877 l 9058 2864 l 9074 2847 l
 9091 2827 l 9108 2806 l 9123 2786 l 9134 2768 l 9141 2752 l
 9144 2738 l 9142 2725 l 9137 2715 l 9128 2704 l 9116 2693 l
 9101 2681 l 9083 2668 l 9064 2655 l 9043 2642 l 9023 2630 l
 9003 2618 l 8985 2608 l 8968 2601 l 8953 2596 l 8941 2594 l
 8931 2595 l 8923 2600 l 8916 2609 l 8911 2623 l 8906 2642 l
 8902 2664 l 8899 2689 l 8896 2716 l 8894 2743 l 8892 2767 l
 8891 2787 l 8889 2814 l gs col-1 s gr gr

% arrowhead
n 8930 2670 m 8890 2787 l 8870 2665 l 8900 2667 l 8930 2670 l  cp gs 0.00 setgray ef gr  col-1 s
% Polyline
gs  clippath
8173 1891 m 8129 2007 l 8113 1885 l 8096 2046 l 8155 2052 l cp
clip
n 8241 2139 m 8244 2136 l 8250 2130 l 8261 2119 l 8276 2104 l 8294 2085 l
 8313 2064 l 8333 2043 l 8351 2022 l 8366 2002 l 8378 1985 l
 8386 1970 l 8389 1956 l 8389 1944 l 8385 1933 l 8377 1921 l
 8365 1909 l 8350 1897 l 8333 1884 l 8313 1871 l 8293 1858 l
 8272 1846 l 8252 1835 l 8233 1825 l 8216 1818 l 8201 1813 l
 8188 1811 l 8178 1812 l 8169 1817 l 8162 1827 l 8156 1841 l
 8151 1859 l 8146 1882 l 8142 1908 l 8138 1935 l 8134 1962 l
 8132 1987 l 8130 2007 l 8127 2034 l gs col-1 s gr gr

% arrowhead
n 8173 1891 m 8129 2007 l 8113 1885 l 8143 1888 l 8173 1891 l  cp gs 0.00 setgray ef gr  col-1 s
% Polyline
gs  clippath
8397 2209 m 8273 2202 l 8385 2150 l 8226 2182 l 8238 2240 l cp
clip
n 11388 4332 m 11387 4332 l 11383 4332 l 11377 4331 l 11368 4330 l 11355 4329 l
 11337 4327 l 11315 4325 l 11288 4322 l 11256 4318 l 11220 4314 l
 11179 4309 l 11135 4304 l 11088 4298 l 11038 4291 l 10986 4283 l
 10933 4275 l 10879 4266 l 10825 4256 l 10772 4246 l 10719 4235 l
 10668 4223 l 10618 4210 l 10570 4197 l 10524 4182 l 10481 4166 l
 10439 4149 l 10400 4131 l 10363 4111 l 10329 4089 l 10295 4066 l
 10264 4040 l 10234 4013 l 10205 3983 l 10182 3957 l 10160 3929 l
 10138 3900 l 10117 3868 l 10096 3835 l 10076 3799 l 10056 3762 l
 10037 3723 l 10019 3682 l 10001 3639 l 9983 3594 l 9966 3548 l
 9949 3501 l 9933 3451 l 9917 3401 l 9902 3350 l 9886 3298 l
 9871 3245 l 9856 3192 l 9841 3138 l 9826 3084 l 9811 3030 l
 9796 2977 l 9781 2924 l 9766 2871 l 9751 2819 l 9735 2769 l
 9719 2719 l 9703 2671 l 9686 2624 l 9669 2579 l 9652 2536 l
 9633 2494 l 9615 2455 l 9596 2417 l 9576 2382 l 9556 2349 l
 9535 2318 l 9514 2290 l 9492 2263 l 9469 2239 l 9446 2217 l
 9417 2192 l 9386 2171 l 9355 2152 l 9321 2136 l 9286 2123 l
 9249 2113 l 9209 2105 l 9167 2099 l 9123 2095 l 9077 2093 l
 9028 2093 l 8978 2095 l 8926 2099 l 8872 2103 l 8818 2109 l
 8763 2116 l 8709 2123 l 8655 2132 l 8602 2140 l 8551 2149 l
 8503 2157 l 8459 2165 l 8418 2173 l 8381 2180 l 8349 2187 l
 8321 2192 l 8299 2197 l 8281 2201 l 8267 2204 l 8247 2208 l gs col-1 s gr gr

% arrowhead
n 8397 2209 m 8273 2202 l 8385 2150 l 8391 2179 l 8397 2209 l  cp gs 0.00 setgray ef gr  col-1 s
% Polyline
gs  clippath
10741 2155 m 10851 2211 l 10728 2214 l 10886 2250 l 10899 2191 l cp
clip
n 7764 4320 m 7765 4320 l 7768 4320 l 7774 4319 l 7782 4319 l 7795 4318 l
 7811 4316 l 7832 4314 l 7857 4312 l 7886 4309 l 7920 4306 l
 7959 4302 l 8001 4298 l 8046 4293 l 8095 4288 l 8146 4282 l
 8198 4275 l 8252 4268 l 8307 4260 l 8362 4252 l 8416 4242 l
 8469 4233 l 8522 4222 l 8572 4211 l 8621 4199 l 8668 4186 l
 8713 4172 l 8756 4157 l 8796 4140 l 8835 4123 l 8871 4104 l
 8905 4083 l 8938 4061 l 8969 4037 l 8999 4011 l 9027 3983 l
 9051 3957 l 9074 3930 l 9096 3900 l 9118 3869 l 9140 3835 l
 9160 3800 l 9180 3763 l 9200 3724 l 9219 3683 l 9237 3640 l
 9255 3595 l 9272 3549 l 9289 3501 l 9306 3452 l 9322 3402 l
 9338 3350 l 9353 3298 l 9368 3245 l 9384 3192 l 9399 3138 l
 9413 3084 l 9428 3030 l 9443 2977 l 9458 2923 l 9473 2871 l
 9489 2819 l 9504 2768 l 9520 2719 l 9536 2671 l 9552 2624 l
 9569 2579 l 9586 2535 l 9604 2494 l 9622 2454 l 9641 2417 l
 9660 2382 l 9679 2349 l 9699 2318 l 9720 2290 l 9741 2263 l
 9762 2239 l 9784 2217 l 9813 2191 l 9844 2169 l 9875 2150 l
 9909 2134 l 9944 2121 l 9981 2111 l 10021 2103 l 10063 2099 l
 10107 2096 l 10153 2096 l 10201 2098 l 10251 2101 l 10302 2106 l
 10355 2113 l 10407 2120 l 10460 2129 l 10512 2138 l 10562 2147 l
 10611 2157 l 10656 2166 l 10698 2175 l 10736 2184 l 10770 2191 l
 10799 2198 l 10823 2204 l 10842 2208 l 10856 2212 l 10878 2217 l gs col-1 s gr gr

% arrowhead
n 10741 2155 m 10851 2211 l 10728 2214 l 10735 2184 l 10741 2155 l  cp gs 0.00 setgray ef gr  col-1 s
% Polyline
gs  clippath
7179 1010 m 7064 963 l 7188 951 l 7027 928 l 7019 988 l cp
clip
n 10373 2721 m 10373 2720 l 10373 2717 l 10373 2711 l 10373 2702 l 10373 2690 l
 10372 2673 l 10372 2651 l 10371 2626 l 10370 2595 l 10368 2560 l
 10367 2521 l 10364 2477 l 10362 2431 l 10358 2381 l 10354 2329 l
 10349 2275 l 10343 2220 l 10337 2164 l 10329 2109 l 10320 2054 l
 10309 2000 l 10298 1947 l 10285 1896 l 10270 1847 l 10254 1800 l
 10235 1755 l 10215 1713 l 10192 1674 l 10167 1636 l 10139 1602 l
 10108 1569 l 10074 1539 l 10037 1511 l 9996 1484 l 9952 1459 l
 9920 1443 l 9887 1427 l 9851 1412 l 9813 1398 l 9772 1383 l
 9729 1369 l 9683 1355 l 9635 1342 l 9584 1329 l 9529 1315 l
 9472 1302 l 9412 1290 l 9349 1277 l 9284 1264 l 9215 1251 l
 9144 1239 l 9070 1226 l 8993 1214 l 8915 1201 l 8834 1189 l
 8751 1177 l 8667 1164 l 8581 1152 l 8494 1140 l 8407 1128 l
 8319 1116 l 8231 1105 l 8144 1093 l 8058 1082 l 7973 1072 l
 7890 1061 l 7809 1051 l 7731 1042 l 7656 1033 l 7584 1024 l
 7517 1016 l 7453 1008 l 7394 1001 l 7339 995 l 7289 989 l
 7244 984 l 7204 979 l 7169 975 l 7139 971 l 7113 969 l
 7092 966 l 7075 964 l 7062 963 l 7052 962 l 7038 960 l gs col-1 s gr gr

% arrowhead
n 7179 1010 m 7064 963 l 7188 951 l 7184 981 l 7179 1010 l  cp gs 0.00 setgray ef gr  col-1 s
% Polyline
gs  clippath
11906 945 m 12029 958 l 11914 1004 l 12075 983 l 12067 923 l cp
clip
n 8802 2841 m 8802 2840 l 8802 2836 l 8802 2830 l 8802 2820 l 8802 2806 l
 8802 2788 l 8802 2765 l 8802 2736 l 8803 2702 l 8804 2664 l
 8805 2621 l 8806 2573 l 8808 2522 l 8810 2467 l 8814 2410 l
 8817 2351 l 8822 2290 l 8828 2229 l 8835 2168 l 8842 2108 l
 8852 2048 l 8862 1990 l 8874 1934 l 8888 1881 l 8903 1829 l
 8920 1781 l 8940 1735 l 8961 1691 l 8986 1651 l 9012 1613 l
 9042 1578 l 9075 1545 l 9111 1515 l 9151 1486 l 9194 1459 l
 9226 1441 l 9261 1424 l 9297 1407 l 9336 1391 l 9378 1375 l
 9422 1360 l 9469 1345 l 9519 1331 l 9573 1316 l 9629 1302 l
 9688 1289 l 9751 1275 l 9816 1261 l 9885 1248 l 9956 1235 l
 10031 1221 l 10108 1208 l 10187 1195 l 10269 1183 l 10353 1170 l
 10439 1157 l 10526 1144 l 10615 1132 l 10704 1120 l 10794 1108 l
 10883 1096 l 10972 1084 l 11060 1073 l 11146 1062 l 11231 1052 l
 11313 1042 l 11392 1032 l 11468 1023 l 11540 1014 l 11608 1006 l
 11671 999 l 11730 992 l 11783 986 l 11832 980 l 11875 975 l
 11913 971 l 11946 967 l 11974 964 l 11997 962 l 12015 959 l
 12030 958 l 12041 957 l 12056 955 l gs col-1 s gr gr

% arrowhead
n 11906 945 m 12029 958 l 11914 1004 l 11910 974 l 11906 945 l  cp gs 0.00 setgray ef gr  col-1 s
% Polyline
gs  clippath
7536 4515 m 7595 4406 l 7594 4530 l 7635 4373 l 7577 4358 l cp
clip
n 7470 4275 m 7467 4278 l 7461 4284 l 7452 4293 l 7438 4307 l 7421 4325 l
 7403 4344 l 7385 4364 l 7368 4383 l 7354 4401 l 7343 4418 l
 7336 4432 l 7332 4445 l 7332 4457 l 7335 4468 l 7342 4480 l
 7352 4492 l 7365 4505 l 7380 4519 l 7397 4533 l 7415 4547 l
 7433 4560 l 7450 4572 l 7467 4583 l 7482 4592 l 7496 4597 l
 7508 4600 l 7518 4599 l 7527 4594 l 7536 4585 l 7544 4571 l
 7552 4553 l 7560 4531 l 7568 4505 l 7576 4478 l 7584 4451 l
 7590 4427 l 7595 4407 l 7602 4380 l gs col-1 s gr gr

% arrowhead
n 7536 4515 m 7595 4406 l 7594 4530 l 7565 4522 l 7536 4515 l  cp gs 0.00 setgray ef gr  col-1 s
% Polyline
gs  clippath
11601 4511 m 11589 4387 l 11658 4490 l 11603 4338 l 11547 4358 l cp
clip
n 11676 4275 m 11679 4277 l 11685 4282 l 11696 4289 l 11710 4300 l 11728 4314 l
 11748 4329 l 11767 4345 l 11785 4361 l 11801 4375 l 11814 4389 l
 11823 4401 l 11829 4413 l 11831 4424 l 11830 4435 l 11826 4447 l
 11819 4460 l 11810 4474 l 11799 4490 l 11787 4505 l 11773 4521 l
 11760 4537 l 11746 4551 l 11733 4564 l 11721 4574 l 11710 4581 l
 11700 4584 l 11691 4584 l 11682 4580 l 11673 4571 l 11664 4557 l
 11653 4539 l 11642 4516 l 11631 4490 l 11619 4462 l 11608 4435 l
 11598 4410 l 11590 4390 l 11580 4362 l gs col-1 s gr gr

% arrowhead
n 11601 4511 m 11589 4387 l 11658 4490 l 11629 4500 l 11601 4511 l  cp gs 0.00 setgray ef gr  col-1 s
% Polyline
gs  clippath
11052 1923 m 11006 2038 l 10993 1915 l 10971 2076 l 11031 2084 l cp
clip
n 10880 2126 m 10877 2123 l 10872 2117 l 10862 2107 l 10849 2093 l 10834 2076 l
 10816 2056 l 10800 2036 l 10784 2017 l 10771 1999 l 10762 1982 l
 10756 1968 l 10755 1955 l 10757 1944 l 10762 1935 l 10771 1925 l
 10782 1915 l 10797 1905 l 10814 1895 l 10833 1884 l 10853 1873 l
 10874 1862 l 10896 1851 l 10916 1842 l 10936 1833 l 10954 1826 l
 10970 1821 l 10983 1818 l 10994 1818 l 11003 1820 l 11011 1826 l
 11016 1837 l 11019 1853 l 11020 1874 l 11019 1898 l 11018 1927 l
 11015 1957 l 11012 1986 l 11009 2013 l 11007 2035 l 11003 2065 l gs col-1 s gr gr

% arrowhead
n 11052 1923 m 11006 2038 l 10993 1915 l 11022 1919 l 11052 1923 l  cp gs 0.00 setgray ef gr  col-1 s
% Polyline
gs  clippath
12339 691 m 12296 807 l 12279 685 l 12263 846 l 12322 852 l cp
clip
n 12135 861 m 12132 858 l 12125 851 l 12115 840 l 12101 825 l 12085 807 l
 12070 789 l 12057 771 l 12047 755 l 12042 741 l 12041 728 l
 12045 717 l 12051 709 l 12060 700 l 12072 691 l 12087 682 l
 12104 671 l 12123 661 l 12143 650 l 12164 639 l 12185 628 l
 12205 618 l 12224 609 l 12242 602 l 12258 597 l 12271 594 l
 12282 594 l 12291 596 l 12299 602 l 12304 613 l 12307 628 l
 12309 648 l 12309 672 l 12307 700 l 12305 729 l 12302 758 l
 12300 784 l 12297 805 l 12294 834 l gs col-1 s gr gr

% arrowhead
n 12339 691 m 12296 807 l 12279 685 l 12309 688 l 12339 691 l  cp gs 0.00 setgray ef gr  col-1 s
% Polyline
gs  clippath
13574 1886 m 13522 1998 l 13515 1875 l 13486 2034 l 13545 2045 l cp
clip
n 13653 2082 m 13657 2079 l 13664 2073 l 13675 2063 l 13690 2049 l 13707 2033 l
 13724 2016 l 13739 1999 l 13751 1984 l 13759 1970 l 13763 1957 l
 13762 1944 l 13758 1933 l 13752 1921 l 13742 1908 l 13730 1893 l
 13716 1877 l 13701 1860 l 13684 1843 l 13668 1827 l 13652 1812 l
 13636 1799 l 13622 1789 l 13610 1782 l 13599 1778 l 13590 1779 l
 13583 1783 l 13576 1791 l 13570 1803 l 13563 1819 l 13557 1839 l
 13551 1862 l 13545 1887 l 13539 1914 l 13534 1941 l 13529 1966 l
 13525 1987 l 13518 2025 l gs col-1 s gr gr

% arrowhead
n 13574 1886 m 13522 1998 l 13515 1875 l 13545 1880 l 13574 1886 l  cp gs 0.00 setgray ef gr  col-1 s
% Polyline
gs  clippath
12658 2532 m 12711 2420 l 12717 2544 l 12749 2385 l 12691 2373 l cp
clip
n 12598 2250 m 12595 2253 l 12590 2258 l 12581 2268 l 12569 2281 l 12554 2298 l
 12538 2317 l 12522 2336 l 12507 2356 l 12495 2374 l 12485 2390 l
 12478 2406 l 12475 2420 l 12475 2433 l 12478 2446 l 12484 2461 l
 12494 2476 l 12505 2493 l 12519 2510 l 12535 2528 l 12551 2547 l
 12567 2565 l 12584 2581 l 12599 2596 l 12613 2608 l 12625 2616 l
 12636 2621 l 12645 2622 l 12653 2618 l 12661 2610 l 12668 2596 l
 12675 2577 l 12682 2554 l 12689 2527 l 12696 2498 l 12702 2470 l
 12707 2444 l 12711 2423 l 12717 2394 l gs col-1 s gr gr

% arrowhead
n 12658 2532 m 12711 2420 l 12717 2544 l 12687 2538 l 12658 2532 l  cp gs 0.00 setgray ef gr  col-1 s
% Polyline
gs  clippath
11849 2543 m 11892 2426 l 11909 2549 l 11926 2388 l 11867 2382 l cp
clip
n 11738 2250 m 11735 2253 l 11730 2258 l 11721 2268 l 11708 2282 l 11693 2298 l
 11676 2317 l 11660 2337 l 11645 2356 l 11632 2374 l 11622 2391 l
 11616 2406 l 11614 2420 l 11616 2433 l 11620 2444 l 11628 2456 l
 11637 2469 l 11650 2482 l 11665 2496 l 11681 2511 l 11699 2526 l
 11717 2542 l 11736 2556 l 11754 2570 l 11771 2583 l 11787 2594 l
 11802 2603 l 11815 2609 l 11826 2613 l 11835 2613 l 11844 2610 l
 11852 2602 l 11859 2589 l 11865 2571 l 11871 2550 l 11876 2525 l
 11881 2498 l 11885 2471 l 11889 2447 l 11892 2427 l 11895 2400 l gs col-1 s gr gr

% arrowhead
n 11849 2543 m 11892 2426 l 11909 2549 l 11879 2546 l 11849 2543 l  cp gs 0.00 setgray ef gr  col-1 s
% Polyline
gs  clippath
10298 2705 m 10252 2820 l 10239 2697 l 10217 2858 l 10277 2866 l cp
clip
n 10116 2901 m 10114 2898 l 10108 2893 l 10100 2883 l 10087 2869 l 10073 2853 l
 10057 2834 l 10041 2814 l 10027 2796 l 10016 2778 l 10007 2762 l
 10002 2748 l 10001 2736 l 10004 2725 l 10010 2716 l 10018 2707 l
 10030 2697 l 10044 2687 l 10061 2677 l 10080 2666 l 10100 2655 l
 10121 2644 l 10142 2633 l 10163 2624 l 10182 2615 l 10200 2608 l
 10216 2603 l 10229 2600 l 10240 2600 l 10249 2602 l 10257 2608 l
 10262 2619 l 10265 2635 l 10266 2656 l 10265 2681 l 10264 2709 l
 10261 2739 l 10258 2768 l 10255 2795 l 10253 2817 l 10249 2847 l gs col-1 s gr gr

% arrowhead
n 10298 2705 m 10252 2820 l 10239 2697 l 10268 2701 l 10298 2705 l  cp gs 0.00 setgray ef gr  col-1 s
% Polyline
gs  clippath
6745 3710 m 6817 3610 l 6800 3732 l 6861 3582 l 6806 3560 l cp
clip
n 6690 3492 m 6687 3494 l 6682 3499 l 6673 3508 l 6660 3520 l 6645 3535 l
 6628 3552 l 6611 3569 l 6595 3586 l 6582 3602 l 6571 3617 l
 6564 3630 l 6560 3643 l 6559 3654 l 6561 3665 l 6566 3677 l
 6573 3690 l 6583 3704 l 6595 3718 l 6608 3733 l 6622 3749 l
 6636 3763 l 6650 3777 l 6663 3789 l 6676 3798 l 6688 3804 l
 6698 3808 l 6708 3807 l 6718 3802 l 6727 3793 l 6738 3780 l
 6749 3761 l 6760 3739 l 6773 3713 l 6785 3685 l 6797 3658 l
 6808 3633 l 6817 3612 l 6828 3585 l gs col-1 s gr gr

% arrowhead
n 6745 3710 m 6817 3610 l 6800 3732 l 6773 3721 l 6745 3710 l  cp gs 0.00 setgray ef gr  col-1 s
% Polyline
gs  clippath
12281 3738 m 12279 3614 l 12339 3723 l 12298 3566 l 12240 3581 l cp
clip
n 12423 3507 m 12423 3508 l 12426 3511 l 12433 3518 l 12443 3530 l 12456 3547 l
 12472 3566 l 12487 3586 l 12500 3605 l 12511 3623 l 12518 3640 l
 12522 3654 l 12521 3668 l 12518 3680 l 12511 3692 l 12503 3706 l
 12492 3721 l 12479 3737 l 12466 3753 l 12451 3770 l 12436 3786 l
 12421 3801 l 12407 3814 l 12394 3824 l 12383 3831 l 12372 3835 l
 12363 3834 l 12355 3830 l 12348 3822 l 12341 3810 l 12334 3794 l
 12326 3774 l 12318 3751 l 12310 3726 l 12303 3699 l 12295 3672 l
 12288 3648 l 12283 3626 l 12273 3588 l gs col-1 s gr gr

% arrowhead
n 12281 3738 m 12279 3614 l 12339 3723 l 12310 3730 l 12281 3738 l  cp gs 0.00 setgray ef gr  col-1 s
% Polyline
gs  clippath
5634 1859 m 5650 1981 l 5579 1882 l 5639 2032 l 5694 2010 l cp
clip
n 5449 2100 m 5448 2097 l 5446 2090 l 5444 2078 l 5439 2061 l 5434 2039 l
 5428 2014 l 5422 1986 l 5415 1958 l 5410 1932 l 5405 1907 l
 5402 1885 l 5400 1866 l 5400 1851 l 5401 1839 l 5404 1830 l
 5411 1822 l 5421 1817 l 5434 1815 l 5449 1815 l 5466 1818 l
 5484 1821 l 5502 1825 l 5520 1830 l 5537 1835 l 5551 1840 l
 5565 1845 l 5576 1852 l 5586 1860 l 5596 1872 l 5605 1886 l
 5615 1903 l 5625 1923 l 5634 1944 l 5643 1964 l 5651 1982 l
 5661 2007 l gs col-1 s gr gr

% arrowhead
n 5634 1859 m 5650 1981 l 5579 1882 l 5606 1871 l 5634 1859 l  cp gs 0.00 setgray ef gr  col-1 s
/Times-Roman ff 165.00 scf sf
8767 3031 m
gs 1 -1 sc (cn0) col-1 sh gr
/Times-Roman ff 165.00 scf sf
7951 2233 m
gs 1 -1 sc (tn0) col-1 sh gr
/Times-Roman ff 165.00 scf sf
7104 2250 m
gs 1 -1 sc (tc0) col-1 sh gr
/Times-Roman ff 165.00 scf sf
6760 3475 m
gs 1 -1 sc (tt0) col-1 sh gr
/Times-Roman ff 165.00 scf sf
6718 1023 m
gs 1 -1 sc (nn0) col-1 sh gr
/Times-Roman ff 165.00 scf sf
7515 4226 m
gs 1 -1 sc (ct0) col-1 sh gr
/Times-Roman ff 135.00 scf sf
7006 534 m
gs 1 -1 sc (1,2) col-1 sh gr
/Times-Roman ff 135.00 scf sf
6500 1207 m
gs 1 -1 sc (2) col-1 sh gr
/Times-Roman ff 135.00 scf sf
7174 1207 m
gs 1 -1 sc (1) col-1 sh gr
/Times-Roman ff 135.00 scf sf
5407 1796 m
gs 1 -1 sc (1) col-1 sh gr
/Times-Roman ff 135.00 scf sf
5743 2553 m
gs 1 -1 sc (1) col-1 sh gr
/Times-Roman ff 135.00 scf sf
5827 2301 m
gs 1 -1 sc (2) col-1 sh gr
/Times-Roman ff 135.00 scf sf
6703 2527 m
gs 1 -1 sc (1,2) col-1 sh gr
/Times-Roman ff 135.00 scf sf
6694 2174 m
gs 1 -1 sc (1) col-1 sh gr
/Times-Roman ff 135.00 scf sf
6332 1964 m
gs 1 -1 sc (2) col-1 sh gr
/Times-Roman ff 135.00 scf sf
7552 2166 m
gs 1 -1 sc (2) col-1 sh gr
/Times-Roman ff 135.00 scf sf
8377 1863 m
gs 1 -1 sc (2) col-1 sh gr
/Times-Roman ff 135.00 scf sf
7966 2493 m
gs 1 -1 sc (2) col-1 sh gr
/Times-Roman ff 135.00 scf sf
8184 2553 m
gs 1 -1 sc (1) col-1 sh gr
/Times-Roman ff 135.00 scf sf
7149 3681 m
gs 1 -1 sc (1) col-1 sh gr
/Times-Roman ff 135.00 scf sf
8605 3461 m
gs 1 -1 sc (2) col-1 sh gr
/Times-Roman ff 135.00 scf sf
8151 4438 m
gs 1 -1 sc (1) col-1 sh gr
/Times-Roman ff 135.00 scf sf
9117 2646 m
gs 1 -1 sc (1,2) col-1 sh gr
/Times-Roman ff 135.00 scf sf
8698 2469 m
gs 1 -1 sc (1) col-1 sh gr
/Times-Roman ff 135.00 scf sf
7544 2442 m
gs 1 -1 sc (1,2) col-1 sh gr
/Times-Roman ff 135.00 scf sf
12073 534 m
gs 1 -1 sc (1,2) col-1 sh gr
/Times-Roman ff 135.00 scf sf
12577 1207 m
gs 1 -1 sc (1) col-1 sh gr
/Times-Roman ff 135.00 scf sf
11904 1207 m
gs 1 -1 sc (2) col-1 sh gr
/Times-Roman ff 135.00 scf sf
13672 1796 m
gs 1 -1 sc (2) col-1 sh gr
/Times-Roman ff 135.00 scf sf
13336 2553 m
gs 1 -1 sc (2) col-1 sh gr
/Times-Roman ff 135.00 scf sf
13251 2301 m
gs 1 -1 sc (1) col-1 sh gr
/Times-Roman ff 135.00 scf sf
12385 2174 m
gs 1 -1 sc (2) col-1 sh gr
/Times-Roman ff 135.00 scf sf
12746 1964 m
gs 1 -1 sc (1) col-1 sh gr
/Times-Roman ff 135.00 scf sf
11526 2166 m
gs 1 -1 sc (1) col-1 sh gr
/Times-Roman ff 135.00 scf sf
10702 1863 m
gs 1 -1 sc (1) col-1 sh gr
/Times-Roman ff 135.00 scf sf
11930 3681 m
gs 1 -1 sc (2) col-1 sh gr
/Times-Roman ff 135.00 scf sf
10474 3461 m
gs 1 -1 sc (1) col-1 sh gr
/Times-Roman ff 135.00 scf sf
10928 4438 m
gs 1 -1 sc (2) col-1 sh gr
/Times-Roman ff 135.00 scf sf
10381 2469 m
gs 1 -1 sc (2) col-1 sh gr
/Times-Roman ff 165.00 scf sf
12148 1023 m
gs 1 -1 sc (nn1) col-1 sh gr
/Times-Roman ff 165.00 scf sf
13414 2231 m
gs 1 -1 sc (tn1) col-1 sh gr
/Times-Roman ff 165.00 scf sf
12619 2250 m
gs 1 -1 sc (cn1) col-1 sh gr
/Times-Roman ff 165.00 scf sf
11789 2250 m
gs 1 -1 sc (ct1) col-1 sh gr
/Times-Roman ff 165.00 scf sf
10943 2233 m
gs 1 -1 sc (nt1) col-1 sh gr
/Times-Roman ff 165.00 scf sf
12195 3475 m
gs 1 -1 sc (tt1) col-1 sh gr
/Times-Roman ff 165.00 scf sf
10127 3031 m
gs 1 -1 sc (nc1) col-1 sh gr
/Times-Roman ff 165.00 scf sf
11378 4226 m
gs 1 -1 sc (tc1) col-1 sh gr
/Times-Roman ff 135.00 scf sf
11799 4632 m
gs 1 -1 sc (1,2) col-1 sh gr
/Times-Roman ff 135.00 scf sf
6527 3941 m
gs 1 -1 sc (2) col-1 sh gr
/Times-Roman ff 165.00 scf sf
6241 2250 m
gs 1 -1 sc (nc0) col-1 sh gr
/Times-Roman ff 165.00 scf sf
5510 2205 m
gs 1 -1 sc (nt0) col-1 sh gr
/Times-Roman ff 135.00 scf sf
9955 2613 m
gs 1 -1 sc (1,2) col-1 sh gr
/Times-Roman ff 135.00 scf sf
10835 2511 m
gs 1 -1 sc (2) col-1 sh gr
/Times-Roman ff 135.00 scf sf
11137 2490 m
gs 1 -1 sc (1) col-1 sh gr
/Times-Roman ff 135.00 scf sf
12334 2620 m
gs 1 -1 sc (1,2) col-1 sh gr
/Times-Roman ff 135.00 scf sf
11544 2637 m
gs 1 -1 sc (1,2) col-1 sh gr
/Times-Roman ff 135.00 scf sf
12463 3889 m
gs 1 -1 sc (1) col-1 sh gr
/Times-Roman ff 135.00 scf sf
7351 4778 m
gs 1 -1 sc (1,2) col-1 sh gr
$F2psEnd
rs
showpage
